{
  "page": 1,
  "per_page": 10,
  "photos": [
    {
      "id": 2246476,
      "width": 5464,
      "height": 3643,
      "url": "https://www.pexels.com/photo/bird-s-eye-view-of-city-2246476/",
      "photographer": "Maxime Francis",
      "photographer_url": "https://www.pexels.com/@maxfrancis",
      "photographer_id": 1177963,
      "avg_color": "#36535C",
      "src": {
        "original": "https://images.pexels.com/photos/2246476/pexels-photo-2246476.jpeg",
        "large2x": "https://images.pexels.com/photos/2246476/pexels-photo-2246476.jpeg?auto=compress\u0026cs=tinysrgb\u0026dpr=2\u0026h=650\u0026w=940",
        "large": "https://images.pexels.com/photos/2246476/pexels-photo-2246476.jpeg?auto=compress\u0026cs=tinysrgb\u0026h=650\u0026w=940",
        "medium": "https://images.pexels.com/photos/2246476/pexels-photo-2246476.jpeg?auto=compress\u0026cs=tinysrgb\u0026h=350",
        "small": "https://images.pexels.com/photos/2246476/pexels-photo-2246476.jpeg?auto=compress\u0026cs=tinysrgb\u0026h=130",
        "portrait": "https://images.pexels.com/photos/2246476/pexels-photo-2246476.jpeg?auto=compress\u0026cs=tinysrgb\u0026fit=crop\u0026h=1200\u0026w=800",
        "landscape": "https://images.pexels.com/photos/2246476/pexels-photo-2246476.jpeg?auto=compress\u0026cs=tinysrgb\u0026fit=crop\u0026h=627\u0026w=1200",
        "tiny": "https://images.pexels.com/photos/2246476/pexels-photo-2246476.jpeg?auto=compress\u0026cs=tinysrgb\u0026dpr=1\u0026fit=crop\u0026h=200\u0026w=280"
      },
      "liked": false,
      "alt": "Bird's Eye View Of City"
    },
    {
      "id": 2559941,
      "width": 5472,
      "height": 3648,
      "url": "https://www.pexels.com/photo/brown-mountains-2559941/",
      "photographer": "Roberto Nickson",
      "photographer_url": "https://www.pexels.com/@rpnickson",
      "photographer_id": 1268114,
      "avg_color": "#58524A",
      "src": {
        "original": "https://images.pexels.com/photos/2559941/pexels-photo-2559941.jpeg",
        "large2x": "https://images.pexels.com/photos/2559941/pexels-photo-2559941.jpeg?auto=compress\u0026cs=tinysrgb\u0026dpr=2\u0026h=650\u0026w=940",
        "large": "https://images.pexels.com/photos/2559941/pexels-photo-2559941.jpeg?auto=compress\u0026cs=tinysrgb\u0026h=650\u0026w=940",
        "medium": "https://images.pexels.com/photos/2559941/pexels-photo-2559941.jpeg?auto=compress\u0026cs=tinysrgb\u0026h=350",
        "small": "https://images.pexels.com/photos/2559941/pexels-photo-2559941.jpeg?auto=compress\u0026cs=tinysrgb\u0026h=130",
        "portrait": "https://images.pexels.com/photos/2559941/pexels-photo-2559941.jpeg?auto=compress\u0026cs=tinysrgb\u0026fit=crop\u0026h=1200\u0026w=800",
        "landscape": "https://images.pexels.com/photos/2559941/pexels-photo-2559941.jpeg?auto=compress\u0026cs=tinysrgb\u0026fit=crop\u0026h=627\u0026w=1200",
        "tiny": "https://images.pexels.com/photos/2559941/pexels-photo-2559941.jpeg?auto=compress\u0026cs=tinysrgb\u0026dpr=1\u0026fit=crop\u0026h=200\u0026w=280"
      },
      "liked": false,
      "alt": "Brown Mountains"
    },
    {
      "id": 733745,
      "width": 5184,
      "height": 3456,
      "url": "https://www.pexels.com/photo/white-sports-coupe-733745/",
      "photographer": "Cesar Perez",
      "photographer_url": "https://www.pexels.com/@cesarperez209",
      "photographer_id": 230962,
      "avg_color": "#332B24",
      "src": {
        "original": "https://images.pexels.com/photos/733745/pexels-photo-733745.jpeg",
        "large2x": "https://images.pexels.com/photos/733745/pexels-photo-733745.jpeg?auto=compress\u0026cs=tinysrgb\u0026dpr=2\u0026h=650\u0026w=940",
        "large": "https://images.pexels.com/photos/733745/pexels-photo-733745.jpeg?auto=compress\u0026cs=tinysrgb\u0026h=650\u0026w=940",
        "medium": "https://images.pexels.com/photos/733745/pexels-photo-733745.jpeg?auto=compress\u0026cs=tinysrgb\u0026h=350",
        "small": "https://images.pexels.com/photos/733745/pexels-photo-733745.jpeg?auto=compress\u0026cs=tinysrgb\u0026h=130",
        "portrait": "https://images.pexels.com/photos/733745/pexels-photo-733745.jpeg?auto=compress\u0026cs=tinysrgb\u0026fit=crop\u0026h=1200\u0026w=800",
        "landscape": "https://images.pexels.com/photos/733745/pexels-photo-733745.jpeg?auto=compress\u0026cs=tinysrgb\u0026fit=crop\u0026h=627\u0026w=1200",
        "tiny": "https://images.pexels.com/photos/733745/pexels-photo-733745.jpeg?auto=compress\u0026cs=tinysrgb\u0026dpr=1\u0026fit=crop\u0026h=200\u0026w=280"
      },
      "liked": false,
      "alt": "White Sports Coupe"
    },
    {
      "id": 325185,
      "width": 5472,
      "height": 3648,
      "url": "https://www.pexels.com/photo/view-of-cityscape-325185/",
      "photographer": "Aleksandar Pasaric",
      "photographer_url": "https://www.pexels.com/@apasaric",
      "photographer_id": 105079,
      "avg_color": "#CBD0D6",
      "src": {
        "original": "https://images.pexels.com/photos/325185/pexels-photo-325185.jpeg",
        "large2x": "https://images.pexels.com/photos/325185/pexels-photo-325185.jpeg?auto=compress\u0026cs=tinysrgb\u0026dpr=2\u0026h=650\u0026w=940",
        "large": "https://images.pexels.com/photos/325185/pexels-photo-325185.jpeg?auto=compress\u0026cs=tinysrgb\u0026h=650\u0026w=940",
        "medium": "https://images.pexels.com/photos/325185/pexels-photo-325185.jpeg?auto=compress\u0026cs=tinysrgb\u0026h=350",
        "small": "https://images.pexels.com/photos/325185/pexels-photo-325185.jpeg?auto=compress\u0026cs=tinysrgb\u0026h=130",
        "portrait": "https://images.pexels.com/photos/325185/pexels-photo-325185.jpeg?auto=compress\u0026cs=tinysrgb\u0026fit=crop\u0026h=1200\u0026w=800",
        "landscape": "https://images.pexels.com/photos/325185/pexels-photo-325185.jpeg?auto=compress\u0026cs=tinysrgb\u0026fit=crop\u0026h=627\u0026w=1200",
        "tiny": "https://images.pexels.com/photos/325185/pexels-photo-325185.jpeg?auto=compress\u0026cs=tinysrgb\u0026dpr=1\u0026fit=crop\u0026h=200\u0026w=280"
      },
      "liked": false,
      "alt": "View of Cityscape"
    },
    {
      "id": 3586966,
      "width": 5295,
      "height": 3530,
      "url": "https://www.pexels.com/photo/city-skyline-across-body-of-water-during-night-time-3586966/",
      "photographer": "Carlos Oliva",
      "photographer_url": "https://www.pexels.com/@carlos-oliva-1966452",
      "photographer_id": 1966452,
      "avg_color": "#194769",
      "src": {
        "original": "https://images.pexels.com/photos/3586966/pexels-photo-3586966.jpeg",
        "large2x": "https://images.pexels.com/photos/3586966/pexels-photo-3586966.jpeg?auto=compress\u0026cs=tinysrgb\u0026dpr=2\u0026h=650\u0026w=940",
        "large": "https://images.pexels.com/photos/3586966/pexels-photo-3586966.jpeg?auto=compress\u0026cs=tinysrgb\u0026h=650\u0026w=940",
        "medium": "https://images.pexels.com/photos/3586966/pexels-photo-3586966.jpeg?auto=compress\u0026cs=tinysrgb\u0026h=350",
        "small": "https://images.pexels.com/photos/3586966/pexels-photo-3586966.jpeg?auto=compress\u0026cs=tinysrgb\u0026h=130",
        "portrait": "https://images.pexels.com/photos/3586966/pexels-photo-3586966.jpeg?auto=compress\u0026cs=tinysrgb\u0026fit=crop\u0026h=1200\u0026w=800",
        "landscape": "https://images.pexels.com/photos/3586966/pexels-photo-3586966.jpeg?auto=compress\u0026cs=tinysrgb\u0026fit=crop\u0026h=627\u0026w=1200",
        "tiny": "https://images.pexels.com/photos/3586966/pexels-photo-3586966.jpeg?auto=compress\u0026cs=tinysrgb\u0026dpr=1\u0026fit=crop\u0026h=200\u0026w=280"
      },
      "liked": false,
      "alt": "City Skyline Across Body of Water during Night Time"
    },
    {
      "id": 1072179,
      "width": 4042,
      "height": 2695,
      "url": "https://www.pexels.com/photo/green-leaves-1072179/",
      "photographer": "Cátia Matos",
      "photographer_url": "https://www.pexels.com/@catiamatos",
      "photographer_id": 363003,
      "avg_color": "#111B19",
      "src": {
        "original": "https://images.pexels.com/photos/1072179/pexels-photo-1072179.jpeg",
        "large2x": "https://images.pexels.com/photos/1072179/pexels-photo-1072179.jpeg?auto=compress\u0026cs=tinysrgb\u0026dpr=2\u0026h=650\u0026w=940",
        "large": "https://images.pexels.com/photos/1072179/pexels-photo-1072179.jpeg?auto=compress\u0026cs=tinysrgb\u0026h=650\u0026w=940",
        "medium": "https://images.pexels.com/photos/1072179/pexels-photo-1072179.jpeg?auto=compress\u0026cs=tinysrgb\u0026h=350",
        "small": "https://images.pexels.com/photos/1072179/pexels-photo-1072179.jpeg?auto=compress\u0026cs=tinysrgb\u0026h=130",
        "portrait": "https://images.pexels.com/photos/1072179/pexels-photo-1072179.jpeg?auto=compress\u0026cs=tinysrgb\u0026fit=crop\u0026h=1200\u0026w=800",
        "landscape": "https://images.pexels.com/photos/1072179/pexels-photo-1072179.jpeg?auto=compress\u0026cs=tinysrgb\u0026fit=crop\u0026h=627\u0026w=1200",
        "tiny": "https://images.pexels.com/photos/1072179/pexels-photo-1072179.jpeg?auto=compress\u0026cs=tinysrgb\u0026dpr=1\u0026fit=crop\u0026h=200\u0026w=280"
      },
      "liked": false,
      "alt": "Green Leaves"
    },
    {
      "id": 1408221,
      "width": 6000,
      "height": 4000,
      "url": "https://www.pexels.com/photo/close-up-photography-of-pink-flowers-1408221/",
      "photographer": "Irina Iriser",
      "photographer_url": "https://www.pexels.com/@iriser",
      "photographer_id": 135125,
      "avg_color": "#853C54",
      "src": {
        "original": "https://images.pexels.com/photos/1408221/pexels-photo-1408221.jpeg",
        "large2x": "https://images.pexels.com/photos/1408221/pexels-photo-1408221.jpeg?auto=compress\u0026cs=tinysrgb\u0026dpr=2\u0026h=650\u0026w=940",
        "large": "https://images.pexels.com/photos/1408221/pexels-photo-1408221.jpeg?auto=compress\u0026cs=tinysrgb\u0026h=650\u0026w=940",
        "medium": "https://images.pexels.com/photos/1408221/pexels-photo-1408221.jpeg?auto=compress\u0026cs=tinysrgb\u0026h=350",
        "small": "https://images.pexels.com/photos/1408221/pexels-photo-1408221.jpeg?auto=compress\u0026cs=tinysrgb\u0026h=130",
        "portrait": "https://images.pexels.com/photos/1408221/pexels-photo-1408221.jpeg?auto=compress\u0026cs=tinysrgb\u0026fit=crop\u0026h=1200\u0026w=800",
        "landscape": "https://images.pexels.com/photos/1408221/pexels-photo-1408221.jpeg?auto=compress\u0026cs=tinysrgb\u0026fit=crop\u0026h=627\u0026w=1200",
        "tiny": "https://images.pexels.com/photos/1408221/pexels-photo-1408221.jpeg?auto=compress\u0026cs=tinysrgb\u0026dpr=1\u0026fit=crop\u0026h=200\u0026w=280"
      },
      "liked": false,
      "alt": "Close-Up Photography of Pink Flowers"
    },
    {
      "id": 2478248,
      "width": 5472,
      "height": 3648,
      "url": "https://www.pexels.com/photo/photo-of-toronto-cityscape-at-night-2478248/",
      "photographer": "Roberto Nickson",
      "photographer_url": "https://www.pexels.com/@rpnickson",
      "photographer_id": 1268114,
      "avg_color": "#1E333B",
      "src": {
        "original": "https://images.pexels.com/photos/2478248/pexels-photo-2478248.jpeg",
        "large2x": "https://images.pexels.com/photos/2478248/pexels-photo-2478248.jpeg?auto=compress\u0026cs=tinysrgb\u0026dpr=2\u0026h=650\u0026w=940",
        "large": "https://images.pexels.com/photos/2478248/pexels-photo-2478248.jpeg?auto=compress\u0026cs=tinysrgb\u0026h=650\u0026w=940",
        "medium": "https://images.pexels.com/photos/2478248/pexels-photo-2478248.jpeg?auto=compress\u0026cs=tinysrgb\u0026h=350",
        "small": "https://images.pexels.com/photos/2478248/pexels-photo-2478248.jpeg?auto=compress\u0026cs=tinysrgb\u0026h=130",
        "portrait": "https://images.pexels.com/photos/2478248/pexels-photo-2478248.jpeg?auto=compress\u0026cs=tinysrgb\u0026fit=crop\u0026h=1200\u0026w=800",
        "landscape": "https://images.pexels.com/photos/2478248/pexels-photo-2478248.jpeg?auto=compress\u0026cs=tinysrgb\u0026fit=crop\u0026h=627\u0026w=1200",
        "tiny": "https://images.pexels.com/photos/2478248/pexels-photo-2478248.jpeg?auto=compress\u0026cs=tinysrgb\u0026dpr=1\u0026fit=crop\u0026h=200\u0026w=280"
      },
      "liked": false,
      "alt": "Photo of Toronto Cityscape at Night"
    },
    {
      "id": 3075993,
      "width": 6000,
      "height": 4000,
      "url": "https://www.pexels.com/photo/photo-of-skyline-at-night-3075993/",
      "photographer": "Piccinng",
      "photographer_url": "https://www.pexels.com/@sanaan",
      "photographer_id": 1193942,
      "avg_color": "#132026",
      "src": {
        "original": "https://images.pexels.com/photos/3075993/pexels-photo-3075993.jpeg",
        "large2x": "https://images.pexels.com/photos/3075993/pexels-photo-3075993.jpeg?auto=compress\u0026cs=tinysrgb\u0026dpr=2\u0026h=650\u0026w=940",
        "large": "https://images.pexels.com/photos/3075993/pexels-photo-3075993.jpeg?auto=compress\u0026cs=tinysrgb\u0026h=650\u0026w=940",
        "medium": "https://images.pexels.com/photos/3075993/pexels-photo-3075993.jpeg?auto=compress\u0026cs=tinysrgb\u0026h=350",
        "small": "https://images.pexels.com/photos/3075993/pexels-photo-3075993.jpeg?auto=compress\u0026cs=tinysrgb\u0026h=130",
        "portrait": "https://images.pexels.com/photos/3075993/pexels-photo-3075993.jpeg?auto=compress\u0026cs=tinysrgb\u0026fit=crop\u0026h=1200\u0026w=800",
        "landscape": "https://images.pexels.com/photos/3075993/pexels-photo-3075993.jpeg?auto=compress\u0026cs=tinysrgb\u0026fit=crop\u0026h=627\u0026w=1200",
        "tiny": "https://images.pexels.com/photos/3075993/pexels-photo-3075993.jpeg?auto=compress\u0026cs=tinysrgb\u0026dpr=1\u0026fit=crop\u0026h=200\u0026w=280"
      },
      "liked": false,
      "alt": "Photo of Skyline at Night"
    },
    {
      "id": 15286,
      "width": 2500,
      "height": 1667,
      "url": "https://www.pexels.com/photo/person-walking-between-green-forest-trees-15286/",
      "photographer": "Luis del Río",
      "photographer_url": "https://www.pexels.com/@luisdelrio",
      "photographer_id": 1081,
      "avg_color": "#283419",
      "src": {
        "original": "https://images.pexels.com/photos/15286/pexels-photo.jpg",
        "large2x": "https://images.pexels.com/photos/15286/pexels-photo.jpg?auto=compress\u0026cs=tinysrgb\u0026dpr=2\u0026h=650\u0026w=940",
        "large": "https://images.pexels.com/photos/15286/pexels-photo.jpg?auto=compress\u0026cs=tinysrgb\u0026h=650\u0026w=940",
        "medium": "https://images.pexels.com/photos/15286/pexels-photo.jpg?auto=compress\u0026cs=tinysrgb\u0026h=350",
        "small": "https://images.pexels.com/photos/15286/pexels-photo.jpg?auto=compress\u0026cs=tinysrgb\u0026h=130",
        "portrait": "https://images.pexels.com/photos/15286/pexels-photo.jpg?auto=compress\u0026cs=tinysrgb\u0026fit=crop\u0026h=1200\u0026w=800",
        "landscape": "https://images.pexels.com/photos/15286/pexels-photo.jpg?auto=compress\u0026cs=tinysrgb\u0026fit=crop\u0026h=627\u0026w=1200",
        "tiny": "https://images.pexels.com/photos/15286/pexels-photo.jpg?auto=compress\u0026cs=tinysrgb\u0026dpr=1\u0026fit=crop\u0026h=200\u0026w=280"
      },
      "liked": false,
      "alt": "Person Walking Between Green Forest Trees"
    }
  ],
  "total_results": 8000,
  "next_page": "https://api.pexels.com/v1/search/?page=2\u0026per_page=10\u0026query=4k+wallpaper\u0026square=landscape"
}
